…
    ## The following objects are masked from 'package:stats':
    ## 
    ##     filter, lag

    ## The following objects are masked from 'package:base':
    ## 
    ##     intersect, setdiff, setequal, union

    tokens <- df_speech %>% #piping: acessa os discursos
      unnest_tokens(palavras, txt) #tokenização propriamente dita dos discursos, chama a coluna dos tokens de palavras. txt é a variável com os discursos.

    tokens

    ## # A tibble: 7,144 x 1
    ##    palavras
    ##    <chr>   
    ##  1 discurso
    ##  2 15062021
    ##  3 bom     
    ##  4 dia     
    ##  5 nós     
    ##  6 sabemos 
    ##  7 que     
    ##  8 uma     
    ##  9 boa     
    ## 10 imagem  
    ## # … with 7,134 more rows
…
